Lab5
…
# Fit the workflow on our predefined folds and hyperparameters
fit_knn_cv <- wf_knn_tune |> 
  tune_grid(
    cv_folds, 
    grid = data.frame(neighbors = c(1, 5, 10, seq(20,100,10)))
  )
    
# Check the performance with collect_metrics()
fit_knn_cv %>% collect_metrics()

## # A tibble: 24 × 7
##    neighbors .metric  .estimator  mean     n std_err .config              
##        <dbl> <chr>    <chr>      <dbl> <int>   <dbl> <chr>                
##  1         1 accuracy binary     0.572    10  0.0254 Preprocessor1_Model01
##  2         1 roc_auc  binary     0.575    10  0.0261 Preprocessor1_Model01
##  3         5 accuracy binary     0.592    10  0.0359 Preprocessor1_Model02
##  4         5 roc_auc  binary     0.627    10  0.0302 Preprocessor1_Model02
##  5        10 accuracy binary     0.602    10  0.0364 Preprocessor1_Model03
##  6        10 roc_auc  binary     0.635    10  0.0318 Preprocessor1_Model03
##  7        20 accuracy binary     0.62     10  0.0316 Preprocessor1_Model04
##  8        20 roc_auc  binary     0.655    10  0.0272 Preprocessor1_Model04
##  9        30 accuracy binary     0.612    10  0.0289 Preprocessor1_Model05
## 10        30 roc_auc  binary     0.663    10  0.0289 Preprocessor1_Model05
## # … with 14 more rows
…
