Lab5_Demo
…
# Define a new workflow
wf_knn_tune <- workflow() |> 
  add_model(knn_spec_tune) |> 
  add_recipe(knn_rec)
    
# Fit the workflow on our predefined folds and hyperparameters
fit_knn_cv <- wf_knn_tune |> 
  tune_grid(cv_folds, grid = data.frame(neighbors = c(1,5,seq(10,100,10))))
    
# Check the performance with collect_metrics()
fit_knn_cv %>% collect_metrics()

## # A tibble: 24 × 7
##    neighbors .metric  .estimator  mean     n std_err .config              
##        <dbl> <chr>    <chr>      <dbl> <int>   <dbl> <chr>                
##  1         1 accuracy binary     0.801     5 0.0108  Preprocessor1_Model01
##  2         1 roc_auc  binary     0.593     5 0.0161  Preprocessor1_Model01
##  3         5 accuracy binary     0.801     5 0.0108  Preprocessor1_Model02
##  4         5 roc_auc  binary     0.702     5 0.00364 Preprocessor1_Model02
##  5        10 accuracy binary     0.848     5 0.0115  Preprocessor1_Model03
##  6        10 roc_auc  binary     0.736     5 0.00949 Preprocessor1_Model03
##  7        20 accuracy binary     0.851     5 0.00886 Preprocessor1_Model04
##  8        20 roc_auc  binary     0.761     5 0.00979 Preprocessor1_Model04
##  9        30 accuracy binary     0.850     5 0.00835 Preprocessor1_Model05
## 10        30 roc_auc  binary     0.773     5 0.0111  Preprocessor1_Model05
## # … with 14 more rows
…
